{
    "name": "Xynok.OOP",
    "rootNamespace": "Xynok",
    "references": [
        "Unity.TextMeshPro",
        "UniTask",
        "Unity.Mathematics",
        "LeanPool",
        "LeanGUI",
        "Xynok.Patterns",
        "Xynok.Enums",
        "Xynok.Utils",
        "Xynok.APIs",
        "Unity.InputSystem"
    ],
    "includePlatforms": [],
    "excludePlatforms": [],
    "allowUnsafeCode": false,
    "overrideReferences": false,
    "precompiledReferences": [],
    "autoReferenced": true,
    "defineConstraints": [],
    "versionDefines": [],
    "noEngineReferences": false
}