{
    "name": "Xynok.Editor",
    "rootNamespace": "Xynok",
    "references": [
        "GUID:c2dc2bedfe2c13042a92d4dd272237bd",
        "GUID:f1acdf3d8a58b17469603553ad9d1d51"
    ],
    "includePlatforms": [],
    "excludePlatforms": [],
    "allowUnsafeCode": false,
    "overrideReferences": false,
    "precompiledReferences": [],
    "autoReferenced": true,
    "defineConstraints": [],
    "versionDefines": [],
    "noEngineReferences": false
}