{
    "name": "Xynok.Utils",
    "rootNamespace": "Xynok",
    "references": [
        "GUID:a4f9c790ae4ec2443a6cfdbb224a0283",
        "GUID:d8b63aba1907145bea998dd612889d6b"
    ],
    "includePlatforms": [],
    "excludePlatforms": [],
    "allowUnsafeCode": false,
    "overrideReferences": false,
    "precompiledReferences": [],
    "autoReferenced": true,
    "defineConstraints": [],
    "versionDefines": [],
    "noEngineReferences": false
}